<?xml version="1.0" encoding="utf-8"?>
<!-- Generator: Adobe Illustrator 22.0.1, SVG Export Plug-In . SVG Version: 6.00 Build 0)  -->
<svg version="1.1" id="Layer_1" xmlns="http://www.w3.org/2000/svg" xmlns:xlink="http://www.w3.org/1999/xlink" x="0px" y="0px"
	 viewBox="0 0 75 75" style="enable-background:new 0 0 75 75;" xml:space="preserve">
<style type="text/css">
	.st0{fill:#FDBA6E;}
	.st1{fill:#E39F5C;}
	.st2{fill:#D28036;}
</style>
<g>
	<polygon class="st0" points="60.9,60.9 53.9,61.4 50.8,67.8 44.1,65.7 38.9,70.6 33.4,66.2 26.8,68.8 23.2,62.7 16.2,62.8 15,55.9 
		8.4,53.4 9.9,46.5 4.6,41.8 8.4,35.9 5.2,29.6 10.9,25.5 10.2,18.4 17,16.7 18.8,9.8 25.9,10.7 30,5 36.3,8.2 42.2,4.4 46.9,9.8 
		53.8,8.4 56.2,15 63.2,16.2 63,23.3 69.1,26.9 66.4,33.4 70.7,39 65.8,44.1 67.9,50.9 61.5,53.9 	"/>
	<path class="st1" d="M38.9,71.2l-5.6-4.5l-6.7,2.7L23,63.2l-7.2,0.1l-1.2-7.1l-6.8-2.5l1.5-7.1l-5.4-4.8l3.9-6l-3.3-6.4l5.8-4.2
		l-0.8-7.2l7-1.8l1.9-7l7.2,0.8l4.3-5.8l6.4,3.4l6.1-3.9l4.7,5.4l7.1-1.4l2.5,6.8l7.1,1.2L63.5,23l6.2,3.7L67,33.4l4.4,5.7l-5,5.2
		l2.1,6.9L62,54.2l-0.6,7.2l-7.2,0.5l-3.1,6.5l-6.9-2.1L38.9,71.2z M33.5,65.6l5.4,4.3l5.1-4.7l6.6,2l3-6.2l6.9-0.5l0.5-6.9l6.3-2.9
		l-2-6.6l4.8-5l-4.3-5.5l2.6-6.4l-5.9-3.6l0.2-6.9l-6.8-1.2l-2.4-6.5l-6.8,1.4l-4.5-5.2l-5.8,3.7l-6.1-3.2l-4.1,5.6l-6.9-0.8
		l-1.8,6.7l-6.7,1.7l0.7,6.9l-5.6,4L9,35.9l-3.8,5.8l5.2,4.6L9,53.1l6.5,2.4l1.1,6.8l6.9-0.1l3.5,6L33.5,65.6z"/>
</g>
<g>
	<path class="st2" d="M14.6,30.9h2.7l6.1,8.1v-8.1h2.8V44h-2.5l-6.3-8.3V44h-2.8V30.9z"/>
	<path class="st2" d="M29.4,30.9h9.9v2.6h-7v2.7h6.2v2.6h-6.2v2.8h7.1V44h-10V30.9z"/>
	<path class="st2" d="M40.9,30.9H44l2.7,8.9l2.9-8.9h2.5l2.9,8.9l2.7-8.9h3l-4.5,13.2h-2.5l-3-8.6l-3,8.6h-2.5L40.9,30.9z"/>
</g>
</svg>
